<?xml version="1.0" encoding="UTF-8"?>
<svg width="42px" height="42px" viewBox="0 0 42 42" version="1.1" xmlns="http://www.w3.org/2000/svg" xmlns:xlink="http://www.w3.org/1999/xlink">
    <title>icons/instagram</title>
    <defs>
        <path d="M7.64072759,0.0788068966 C6.25667586,0.141789655 5.31157586,0.361310345 4.48508966,0.682589655 C3.63027241,1.01440345 2.90572414,1.45976552 2.18216207,2.18211724 C1.45967586,2.90455862 1.01444828,3.62915172 0.682589655,4.48495517 C0.361265517,5.31139655 0.141789655,6.25649655 0.078762069,7.64045862 C0.0147034483,9.02657241 -2.52242671e-13,9.4696931 -2.52242671e-13,13.0000897 C-2.52242671e-13,16.5304862 0.0147034483,16.9736517 0.0788068966,18.3597207 C0.141789655,19.7437276 0.361310345,20.6888276 0.682634483,21.515269 C1.0144931,22.3699517 1.45868966,23.0956655 2.1822069,23.8181069 C2.9046931,24.5405034 3.62924138,24.9847 4.48513448,25.3176345 C5.3126069,25.6389138 6.25667586,25.8583448 7.64077241,25.9214172 C9.0280069,25.9844448 9.47014138,26.0001793 13.0005828,26.0001793 C16.5321448,26.0001793 16.9742345,25.9855207 18.3604379,25.9214172 C19.7444897,25.8584345 20.6895897,25.6389138 21.516031,25.3176345 C22.3708483,24.9847 23.0954414,24.5405034 23.8189586,23.8181069 C24.5414448,23.0956655 24.9856862,22.3699517 25.3185759,21.515269 C25.6399,20.6888276 25.8604069,19.7437276 25.9224034,18.3597207 C25.9853862,16.9726207 26.0000897,16.5304862 26.0000897,13.0000897 C26.0000897,9.4696931 25.9853862,9.02657241 25.9224034,7.64041379 C25.8594207,6.25645172 25.6399,5.3113069 25.3185759,4.48491034 C24.9856862,3.63018276 24.5414448,2.90563448 23.8189586,2.18207241 C23.0965172,1.45972069 22.3708483,1.01435862 21.5170621,0.682544828 C20.6895897,0.361265517 19.7444897,0.140713793 18.3614241,0.078762069 C16.9752655,0.0157793103 16.5320552,3.55271368e-15 13.0016586,3.55271368e-15 C9.47009655,3.55271368e-15 9.0280069,0.0147482759 7.64072759,0.0788068966 M7.74791034,23.581731 C6.48041034,23.5239483 5.79145517,23.3128552 5.33367586,23.1343966 C4.72671034,22.8981103 4.29407931,22.6167276 3.83831724,22.1620414 C3.38358621,21.7072655 3.10117241,21.2746793 2.86596207,20.6677138 C2.68745862,20.2098897 2.47636552,19.521069 2.41862759,18.253569 C2.35568966,16.8832345 2.34300345,16.4716276 2.34300345,13.0000448 C2.34300345,9.52846207 2.35663103,9.11788621 2.41862759,7.74647586 C2.47641034,6.47911034 2.68853448,5.79132069 2.86596207,5.33233103 C3.10224828,4.72541034 3.38367586,4.29277931 3.83831724,3.83701724 C4.29304828,3.38233103 4.72567931,3.09996207 5.33367586,2.8647069 C5.7915,2.68624828 6.48041034,2.4752 7.74791034,2.41737241 C9.11828966,2.35443448 9.52994138,2.3417931 13.0006276,2.3417931 C16.4723448,2.3417931 16.8829207,2.35542069 18.2544207,2.41737241 C19.5218759,2.47515517 20.2097552,2.68727931 20.6686103,2.8647069 C21.2755759,3.09996207 21.7082069,3.38242069 22.1639241,3.83701724 C22.6187,4.2917931 22.9000828,4.72541034 23.1363241,5.33233103 C23.3147828,5.7902 23.5258759,6.47902069 23.5836586,7.74647586 C23.6466414,9.11797586 23.6592828,9.52846207 23.6592828,13.0000448 C23.6592828,16.4705517 23.646731,16.8822483 23.5836586,18.253569 C23.5258759,19.5209793 23.3137517,20.2098897 23.1363241,20.6677138 C22.9000379,21.2746793 22.6186103,21.7072655 22.1639241,22.1620414 C21.7091931,22.6167724 21.2755759,22.8981552 20.6686103,23.1343966 C20.2107414,23.3127655 19.5218759,23.5238586 18.2544207,23.581731 C16.8839966,23.6447138 16.4723448,23.6573552 13.0006276,23.6573552 C9.52994138,23.6573552 9.11828966,23.6447138 7.74791034,23.581731 M18.3803862,6.06006207 C18.3803862,6.92115517 19.0787103,7.62055517 19.9408793,7.62055517 C20.8020172,7.62055517 21.5014621,6.92115517 21.5014621,6.06006207 C21.5014621,5.19901379 20.8031379,4.50077931 19.9408793,4.50077931 C19.0787552,4.50068966 18.3803862,5.19901379 18.3803862,6.06006207 M6.3249931,13.0000448 C6.3249931,16.6868448 9.31364828,19.6754103 13.0006276,19.6754103 C16.6876517,19.6754103 19.6762621,16.6868448 19.6762621,13.0000448 C19.6762621,9.31324483 16.6876069,6.32467931 13.0006276,6.32467931 C9.31360345,6.32467931 6.3249931,9.31324483 6.3249931,13.0000448 M8.66777241,13.0000448 C8.66777241,10.6068793 10.6073724,8.66638276 13.0005828,8.66638276 C15.3938379,8.66638276 17.334469,10.6068793 17.334469,13.0000448 C17.334469,15.3932103 15.3938828,17.3337069 13.0005828,17.3337069 C10.6073276,17.3337069 8.66777241,15.3932103 8.66777241,13.0000448" id="path-1"></path>
        <filter x="-53.8%" y="-38.5%" width="207.7%" height="207.7%" filterUnits="objectBoundingBox" id="filter-2">
            <feOffset dx="0" dy="4" in="SourceAlpha" result="shadowOffsetOuter1"></feOffset>
            <feGaussianBlur stdDeviation="4" in="shadowOffsetOuter1" result="shadowBlurOuter1"></feGaussianBlur>
            <feColorMatrix values="0 0 0 0 0   0 0 0 0 0   0 0 0 0 0  0 0 0 0.25 0" type="matrix" in="shadowBlurOuter1"></feColorMatrix>
        </filter>
    </defs>
    <g id="Atoms" stroke="none" stroke-width="1" fill="none" fill-rule="evenodd">
        <g id="assets" transform="translate(-1281.000000, -520.000000)">
            <g id="Icons/Social/instagram" transform="translate(1289.000000, 524.000000)">
                <g id="Fill-1">
                    <use fill="black" fill-opacity="1" filter="url(#filter-2)" xlink:href="#path-1"></use>
                    <use fill="#FFFFFF" fill-rule="evenodd" xlink:href="#path-1"></use>
                </g>
            </g>
        </g>
    </g>
</svg>