<?xml version="1.0" encoding="UTF-8"?>
<svg width="320px" height="400px" viewBox="0 0 320 400" version="1.1" xmlns="http://www.w3.org/2000/svg" xmlns:xlink="http://www.w3.org/1999/xlink">
    <title>footer-bg</title>
    <defs>
        <linearGradient x1="50%" y1="0%" x2="50%" y2="36.0955329%" id="linearGradient-1">
            <stop stop-color="#570A55" offset="0%"></stop>
            <stop stop-color="#811D88" offset="100%"></stop>
        </linearGradient>
        <linearGradient x1="50%" y1="0%" x2="50%" y2="31.8059959%" id="linearGradient-2">
            <stop stop-color="#4F0C53" offset="0%"></stop>
            <stop stop-color="#4D1766" offset="100%"></stop>
        </linearGradient>
        <linearGradient x1="0%" y1="27.5677381%" x2="100%" y2="25.9882219%" id="linearGradient-3">
            <stop stop-color="#63003F" offset="0%"></stop>
            <stop stop-color="#180211" offset="100%"></stop>
        </linearGradient>
    </defs>
    <g id="Symbols" stroke="none" stroke-width="1" fill="none" fill-rule="evenodd">
        <g id="organisms/mobile/footer" transform="translate(-560.000000, -2.000000)">
            <g id="footer" transform="translate(560.000000, 2.000000)">
                <g id="footer-bg" transform="translate(-0.000529, 0.000000)">
                    <rect id="Rectangle" fill="#D84018" x="0.000529411765" y="0" width="320" height="400"></rect>
                    <polygon id="Path" fill="url(#linearGradient-1)" points="57.3285205 51 74.1082764 65.2014199 89.3553352 68.7657794 96.3251909 73.2488378 99.8684539 67.3317129 115.230585 64.2555122 117.594358 68.7513747 144.300685 55.7327396 161.056467 53.5880419 172.023482 53.5880419 189.914003 57.8646331 201.732871 66.3842047 214.258154 67.3317129 224.419664 71.8275754 234.023393 75.665624 245.046345 96.3619568 261.998709 93.128905 271.222061 103.260201 289.413049 88.1576878 307.375491 81.7684093 320.000529 86.4 320.000529 400 0.000529411765 400 0.000529411765 78.34 16.3340699 71.525077 23.2224162 61.8675353 35.6230377 53.5880419"></polygon>
                    <polygon id="Path" fill="url(#linearGradient-2)" points="56.2893552 179.900298 116.911597 192.996068 144.46658 204.025683 320 315.439 320.000529 400 0.000529411765 400 0 179.9"></polygon>
                    <path d="M232.027881,155.367337 L232.645404,155.774754 C253.312041,169.559774 298.779921,190.238904 298.779921,190.238904 L320.000529,206.648551 L320.000529,400 L0.000209766926,400 L0.000209766926,254.792551 L14.956081,260.548904 L45.2664029,232.977264 L78.3336615,220.569147 L130.689888,198.511515 L151.25067,183.39487 C166.620891,172.120564 185.840679,158.086961 191.049421,154.569975 L192.065888,153.895265 C200.244429,148.541474 212.34622,142.527104 232.027881,155.367337 L232.027881,155.367337 Z" id="Path" fill="url(#linearGradient-3)"></path>
                </g>
            </g>
        </g>
    </g>
</svg>